27

3
5
9
7
-1
8
4
8
8

3
2
10
1
7
5
-2
-3
-2
-2
-1
-1

10
7
4
8
1
-5
-2
-1
-1
-1
1
1
5
-2

7
10
9
2
5
8
-4
-3
-1
-2
-2

8
1
4
-3
-2
4
-1

9
9
4
1
8
8
-6
-4
-1

3
4
-1
-1

9
1
-1
-1
10
1
2
9
8

6
5
9
5
7
-4
-4
10
1
7
2
7
-5
-1
-6
-3
-4
-3
-2
-1

5
5
6
9
-4
-2
-2
-1
5
3
8
6
6
-5

9
-1
10
-1

9
8
4
7
-1
-2

2
5
9
5
10
-3
-4
-1
-1
7
9
2
1
3

5
4
5
-2
8
6
2
-3
-3
-1

7
10
-2
-1
3
3
4
3
6
-5
-3
-3
-2

7
8
5
8
7
2

1
2
10
-1
-1
-1

8
8
8
10
-4
-3
-1
-1
3
9
8

1
8
4
4
-3
-1
-1
-1
8
1
-2
-1

1
9
1
1
-1
4
2
-1
-4

2
4
10
-3
-1
-1

10
3
5
-2
3
-1
-1

9
4
8
1
3
-4
-1
-3
-2

3
2
3
9
6
3
-4
-5
-4
-1
-2
-1

8
5
6
-1
10
4
9
8
-4
-5

8
7
8
9
-1
7
9
8
6
-3
-4
-3
-4
-1
-1

6
7
1
2
8
6
9
1
3
