25

6
10
7
-2
-1
6
-2

9
7
-1
-1

10
8
6
-2
-2
1
8
9
-1
-3
-2

2
10
5
6
7
-5
-2
4

3
3
1
9
-1
-2
-1
-1
7
5

8
6
5
7
8
-3
9
2
9
3
7
-3
-6
-6
-5
-5
-2

2
1
-2
-1

10
9
8
9
-4

9
7
8
9
4
-2
5
-1
-1
-1

2
4
2
2
9
-1
10
5
7
9
-7
-3
-2
-5
-4
-2
-1

5
1
7
3
5
-5
-4
-1
-2
2
7
3
-2
-2
-2
-1

8
10
6
7
9
-2
-2
5
1
-5
-4
-3

10
9
2
-3
-2
-1
6
8
4
2
-1

4
-1
3
6
4
10
1
-2
-2
-2
-1
-1

9
1
10
-1
-2
-1
6
4
8
2
1
-4
-3

6
10
4
2
1
10
-5
-2
-3

5
5
7
10
10
-1
-1
-2
-1
-1

6
2
-2
-1
2
4
7
1
8
-2
-1
-1

3
1
4
6
9
-4
-4
-3
3
8
5
9

3
9
3
9
10
-5
-2
-1
-2
1
5
-1
-1
-1

2
6
1
1
-1
1
2

3
1
1
3
10
-4
-4
-1
-1

3
2
-1
-1
10
1
8
9
-4
-3

1
2
9
3
-1
3
7
-5

5
10
-2
-1
2
9
2
3
8
-4
-1
-3
-1
-1
