-24 -40 -16 -80 24 -16 744
-64 -80 24 -24 -64 696
992
176 -64 736
992
-24 -8 16 -32 880
992
64 -8 -48 -56 -64 712
-56 -8 -56 48 -24 -24 728
32 -32 104 -32 760
992
-16 -48 -40 -72 -40 736
992
48 -16 72 -16 136 -72 584
8 -64 64 -48 -72 104 -16 560
32 -24 -24 -48 832
992
40 -72 864
992
-72 912
16 -24 936
-16 -8 -72 -40 -80 736
56 -56 -32 824
328 -56 592
992
-32 8 -40 -48 832
