24

22
16
7
5
34
8

1
9
5
-2
15
14
17
22
13

9
15
21
21
16
15
6
6

8
7
21
8
16
-1
23
18
3
9

86

21
24
23
12
1
1
16
1
-1

21
18
6
21
23
21
5

7
7
15
24
15
4
6
-4
13
14

34
33
22

27
4

1
23
16
11
2
17
-1
2
19
-5
4
1
15

23
19
22
3
9
21
-3
8
9

17
26
9
28
21
6
7

1
14
22
6
-4
21
17
12
17

93

21
7
16
19
21
19
3
1
-6

42
2
19
33

2
11
5
-3
4
22
-3
11
13
2
9
16
2
-4

11
22
18
12
22
11
9

68

23
-1
5
15
49

21
6
16
6
14
4
-5
16
11
1
13

21
3
4
3
4
18
2
-7
17
8
-4
16

21
11
1
2
16
-4
18
11
14
