992
-16 -16 24 -40 -48 808
-16 48 -16 -32 -24 -40 768
-24 40 -40 -40 816
-24 -32 -24 -16 864
-32 -32 -48 -48 800
-48 -40 24 -16 832
-16 -32 -40 -16 -56 -40 -40 696
-40 -40 896
-8 -40 -32 -32 848
-24 40 -40 864
-48 -8 24 -32 848
-40 -48 -48 -8 -40 -16 -16 720
-48 936
-48 8 -32 -16 -48 -40 752
24 -48 -32 864
-48 -16 912
-32 952
-16 -8 -48 -24 -48 808
-48 -24 -40 856
-40 -24 -24 880
-16 -32 -24 896
-16 -24 -8 16 -8 -16 -16 832
-32 -16 928
-8 -40 16 -8 -48 832
-32 -16 8 -16 -32 -48 -16 768
-32 -24 -32 880
-16 -48 -16 -32 -48 8 -24 744
-32 952
-40 -8 -24 896
