-48 -8 -8 -40 856
-40 -40 -24 -32 -32 -8 -16 -24 -40 664
8 -32 24 -40 -48 -32 760
-16 -40 920
-8 -8 16 -24 -40 -40 -16 -40 -40 -32 648
-40 -16 -48 -16 -32 800
-8 -16 -16 32 -48 -40 -32 -16 -32 680
-16 -8 16 -32 -8 -24 -8 -32 -40 -48 680
-24 -48 -8 32 -16 -24 -32 -48 -16 672
40 -16 8 -16 16 -8 -40 -16 -16 -32 -48 -48 592
-16 48 -8 24 -24 -24 -24 768
-48 -40 -16 -48 -48 -48 -48 -48 -48 528
-8 -32 32 -16 -48 -24 -16 -48 -32 -24 632
-32 -24 -8 904
-40 32 -16 -32 -48 784
24 -16 8 -32 -16 -48 -48 -48 -32 -24 616
-24 56 -24 -40 -16 -24 -40 -16 -24 -32 -40 568
-24 -24 -8 912
-40 16 -16 56 -40 -16 -40 -16 -48 -48 -40 528
-40 -40 -8 880
