20

5
118
-1
-1
5
-1
3
-1

54
69
-2
-1
40
6
-1

25
7
-1

5
3
3
-1
-1
3
3
5
-2
-1

24
3
-2
4
5
-1
-1
3
5
6
3

54
3
2
1
-1
-2
4
3
5
6
-1
-1

46
3
2
-1
-2
4
2
4

4
-1
23
-1
2
-1
2
-1

3
5
2
4
-3
-2
1
3
5

6
-1
4
5
7
35
-2
2
-1

124
-1
124
-1
124
-1

120
-1
124
-1
35
23
-2
-1

34
-1
53
-1
34
2
-2
-1

32
-1
2
3
4
5
-2
-3
4
6
-1

74
-1
34
-1
23
24
-1

37
-1
23
-1
34
5
-1
23
-1
3
-1
4
-1

45
-1
23
-1
2
4
5
-2
-1
34

34
-1
23
-1
45
-1
34
5
6
-1

34
-1
5
5
-2
6
-1

34
-1
45
-1
23
-1
2
3
4
-1
-1
3
5
-1
